{
  "collapse-filter": false,
  "search": "",
  "showTags": false,
  "showAttachments": false,
  "hideUnresolved": false,
  "showOrphans": true,
  "collapse-color-groups": false,
  "colorGroups": [],
  "collapse-display": false,
  "showArrow": true,
  "textFadeMultiplier": -2.4,
  "nodeSizeMultiplier": 1.3982905982906,
  "lineSizeMultiplier": 3.45042735042735,
  "collapse-forces": false,
  "centerStrength": 0.404494382022472,
  "repelStrength": 12.4719101123596,
  "linkStrength": 0,
  "linkDistance": 30,
  "scale": 0.9384087294066751,
  "close": true
}