{
  "main": {
    "id": "62f8b8e81c38f942",
    "type": "split",
    "children": [
      {
        "id": "6a0a004cdba5ea6c",
        "type": "tabs",
        "children": [
          {
            "id": "66af5daa3d7e6858",
            "type": "leaf",
            "state": {
              "type": "markdown",
              "state": {
                "file": "_notes/philosophy.md",
                "mode": "source",
                "source": false
              }
            }
          }
        ],
        "stacked": true
      }
    ],
    "direction": "vertical"
  },
  "left": {
    "id": "f52b2e3c8319fe91",
    "type": "split",
    "children": [
      {
        "id": "79c0878139993b00",
        "type": "tabs",
        "children": [
          {
            "id": "a39e44a60962737a",
            "type": "leaf",
            "state": {
              "type": "file-explorer",
              "state": {
                "sortOrder": "byModifiedTime"
              }
            }
          },
          {
            "id": "0c2e177059717775",
            "type": "leaf",
            "state": {
              "type": "search",
              "state": {
                "query": "",
                "matchingCase": false,
                "explainSearch": false,
                "collapseAll": false,
                "extraContext": false,
                "sortOrder": "alphabetical"
              }
            }
          },
          {
            "id": "7222ad7bf1f89359",
            "type": "leaf",
            "state": {
              "type": "starred",
              "state": {}
            }
          },
          {
            "id": "edef2035ccb9343a",
            "type": "leaf",
            "state": {
              "type": "bookmarks",
              "state": {}
            }
          }
        ]
      }
    ],
    "direction": "horizontal",
    "width": 300
  },
  "right": {
    "id": "6f744d4c091bcf0a",
    "type": "split",
    "children": [
      {
        "id": "ebd6f4a1ace6762f",
        "type": "tabs",
        "children": [
          {
            "id": "14941a1553ed043c",
            "type": "leaf",
            "state": {
              "type": "backlink",
              "state": {
                "file": "_notes/philosophy.md",
                "collapseAll": false,
                "extraContext": false,
                "sortOrder": "alphabetical",
                "showSearch": false,
                "searchQuery": "",
                "backlinkCollapsed": false,
                "unlinkedCollapsed": true
              }
            }
          },
          {
            "id": "d46a59a14e108b98",
            "type": "leaf",
            "state": {
              "type": "outgoing-link",
              "state": {
                "file": "_notes/philosophy.md",
                "linksCollapsed": false,
                "unlinkedCollapsed": true
              }
            }
          },
          {
            "id": "66068656fac4db93",
            "type": "leaf",
            "state": {
              "type": "tag",
              "state": {
                "sortOrder": "frequency",
                "useHierarchy": true
              }
            }
          },
          {
            "id": "2f4950357e21d20c",
            "type": "leaf",
            "state": {
              "type": "outline",
              "state": {
                "file": "_notes/philosophy.md"
              }
            }
          },
          {
            "id": "136fab2163108d70",
            "type": "leaf",
            "state": {
              "type": "calendar",
              "state": {}
            }
          },
          {
            "id": "9c4778c2f0764b6a",
            "type": "leaf",
            "state": {
              "type": "advanced-tables-toolbar",
              "state": {}
            }
          }
        ],
        "currentTab": 5
      }
    ],
    "direction": "horizontal",
    "width": 300,
    "collapsed": true
  },
  "left-ribbon": {
    "hiddenItems": {
      "publish:Publish changes...": false,
      "switcher:Open quick switcher": false,
      "graph:Open graph view": false,
      "canvas:Create new canvas": false,
      "daily-notes:Open today's daily note": false,
      "templates:Insert template": false,
      "command-palette:Open command palette": false,
      "markdown-importer:Open format converter": false,
      "zk-prefixer:Create new unique note": false,
      "random-note:Open random note": false,
      "audio-recorder:Start/stop recording": false,
      "workspaces:Manage workspace layouts": false,
      "table-editor-obsidian:Advanced Tables Toolbar": false
    }
  },
  "active": "66af5daa3d7e6858",
  "lastOpenFiles": [
    "_notes/career-home.md",
    "_drafts/walking-into-2024.md",
    "assets/website-kanban.md",
    "assets/image.jpg",
    "assets/about.jpg",
    "assets/dune-fear.png",
    "_pages/index.md",
    "_pages/about.md",
    "_pages/links-master.md",
    "_notes/consistency.md",
    "_notes/hello.md",
    "_notes/valedictorian-speech.md",
    "_notes/seeking.md",
    "_notes/fear.md",
    "_notes/philosophy.md",
    "_notes/fitness.md",
    "_notes/antichess.md",
    "README.md",
    "favicon.png",
    "_site/walking-into-2024.html",
    "_notes/advice.md",
    "_site/fitness.html",
    "_drafts/your-first-note.md",
    "_site/README.md",
    "_links/fool.md",
    "_site/career-home.html",
    "_site/resume.html",
    "_site/linkedin.html",
    "_site/docs.html",
    "_links/linkedin.md",
    "_links/resume.md",
    "_links/docs.md"
  ]
}